<?xml version="1.0" encoding="UTF-8" standalone="no"?>
<!-- Uploaded to: SVG Repo, www.svgrepo.com, Generator: SVG Repo Mixer Tools -->

<svg
   width="20"
   height="20"
   viewBox="-3 0 15 20"
   id="meteor-icon-kit__regular-file-text"
   fill="none"
   version="1.1"
   sodipodi:docname="index.svg"
   inkscape:version="1.1.2 (0a00cf5339, 2022-02-04)"
   xmlns:inkscape="http://www.inkscape.org/namespaces/inkscape"
   xmlns:sodipodi="http://sodipodi.sourceforge.net/DTD/sodipodi-0.dtd"
   xmlns="http://www.w3.org/2000/svg"
   xmlns:svg="http://www.w3.org/2000/svg">
  <defs
     id="defs7" />
  <sodipodi:namedview
     id="namedview5"
     pagecolor="#505050"
     bordercolor="#ffffff"
     borderopacity="1"
     inkscape:pageshadow="0"
     inkscape:pageopacity="0"
     inkscape:pagecheckerboard="1"
     showgrid="false"
     inkscape:zoom="17.996225"
     inkscape:cx="7.0292519"
     inkscape:cy="18.753933"
     inkscape:window-width="1920"
     inkscape:window-height="1015"
     inkscape:window-x="0"
     inkscape:window-y="0"
     inkscape:window-maximized="1"
     inkscape:current-layer="meteor-icon-kit__regular-file-text" />
  <path
     fill-rule="evenodd"
     clip-rule="evenodd"
     d="M -1.3343055,5.8343052 V 17.502917 c 0,0.460326 0.373162,0.83347 0.833472,0.83347 H 9.5008324 c 0.4603271,0 0.8334736,-0.373144 0.8334736,-0.83347 V 2.5004166 c 0,-0.4603102 -0.3731465,-0.8334723 -0.8334736,-0.8334723 H 2.8330555 V 5.000833 c 0,0.46031 -0.373162,0.8334722 -0.833472,0.8334722 z m 0.105034,-1.6669444 h 2.395383 V 1.7719786 c -1.171537,0.3015334 -2.093849,1.2238455 -2.395383,2.3953822 z M 9.5008324,0 C 10.881813,0 12.00125,1.1194782 12.00125,2.5004166 V 17.502917 c 0,1.380979 -1.119437,2.500414 -2.5004176,2.500414 H -0.5008335 c -1.380938,0 -2.500416,-1.119435 -2.500416,-2.500414 V 5.000833 C -3.0012495,2.2389479 -0.7623015,0 1.9995835,0 Z M 1.1661115,9.1681938 c -0.46031,0 -0.833473,-0.3731454 -0.833473,-0.8334721 0,-0.4603184 0.373163,-0.8334721 0.833473,-0.8334721 h 6.667777 c 0.460327,0 0.833472,0.3731537 0.833472,0.8334721 0,0.4603267 -0.373145,0.8334721 -0.833472,0.8334721 z m 0,3.3338882 c -0.46031,0 -0.833473,-0.373144 -0.833473,-0.833473 0,-0.460326 0.373163,-0.83347 0.833473,-0.83347 h 6.667777 c 0.460327,0 0.833472,0.373144 0.833472,0.83347 0,0.460329 -0.373145,0.833473 -0.833472,0.833473 z m 0,3.333889 c -0.46031,0 -0.833473,-0.373145 -0.833473,-0.833472 0,-0.460326 0.373163,-0.833472 0.833473,-0.833472 h 6.667777 c 0.460327,0 0.833472,0.373146 0.833472,0.833472 0,0.460327 -0.373145,0.833472 -0.833472,0.833472 z"
     fill="#758ca3"
     id="path2"
     style="stroke-width:0.833472" />
</svg>
